{
  "$schema": "https://docs.renovatebot.com/renovate-schema.json",
  "description": "Renovate preset to update gitlab remote include for renovate templates",
  "customManagers": [
    {
      "customType": "regex",
      "description": "Update renovate remote includes version",
      "fileMatch": ["\\.gitlab-ci\\.ya?ml$"],
      "matchStrings": [
        "-\\s+remote:\\s+https://gitlab\\.com/renovate-bot/renovate-runner/-/raw/(?<currentValue>v[0-9.]+)/"
      ],
      "datasourceTemplate": "gitlab-releases",
      "depNameTemplate": "renovate-runner",
      "packageNameTemplate": "renovate-bot/renovate-runner",
      "versioningTemplate": "semver"
    }
  ]
}
